%YAML 1.1
%TAG !u! tag:unity3d.com,2011:
--- !u!114 &11400000
MonoBehaviour:
  m_ObjectHideFlags: 0
  m_CorrespondingSourceObject: {fileID: 0}
  m_PrefabInstance: {fileID: 0}
  m_PrefabAsset: {fileID: 0}
  m_GameObject: {fileID: 0}
  m_Enabled: 1
  m_EditorHideFlags: 0
  m_Script: {fileID: 11500000, guid: 5e6adb195b942e742804fd29b0a34a43, type: 3}
  m_Name: TileLogic_None
  m_EditorClassIdentifier: 
  _TileType: 0
  _TileSprite: {fileID: 21300000, guid: 8ef0aa954e975cd44a13dcece752d2f0, type: 3}
