%YAML 1.1
%TAG !u! tag:unity3d.com,2011:
--- !u!114 &11400000
MonoBehaviour:
  m_ObjectHideFlags: 0
  m_CorrespondingSourceObject: {fileID: 0}
  m_PrefabInstance: {fileID: 0}
  m_PrefabAsset: {fileID: 0}
  m_GameObject: {fileID: 0}
  m_Enabled: 1
  m_EditorHideFlags: 0
  m_Script: {fileID: 11500000, guid: b98d599890c6ae54c899c3259a62d2d3, type: 3}
  m_Name: RealmPalette
  m_EditorClassIdentifier: 
  Realms:
  - {fileID: 11400000, guid: fe5c7d12942e186448f29f26a22d19de, type: 2}
  - {fileID: 11400000, guid: b02635e1031edf240bd8b4d5f9ac3bc9, type: 2}
  - {fileID: 11400000, guid: 4fb5467b0a8c7b04b96cf6f39ac1d3c1, type: 2}
